%YAML 1.1
%TAG !u! tag:unity3d.com,2011:
--- !u!21 &2100000
Material:
  serializedVersion: 6
  m_ObjectHideFlags: 0
  m_CorrespondingSourceObject: {fileID: 0}
  m_PrefabInstance: {fileID: 0}
  m_PrefabAsset: {fileID: 0}
  m_Name: River 2
  m_Shader: {fileID: 4800000, guid: bcf830be7d4bfcb4d84799434d9a6f79, type: 3}
  m_ShaderKeywords: WATER_ANIMATION_ON _NORMALMAP
  m_LightmapFlags: 4
  m_EnableInstancingVariants: 0
  m_DoubleSidedGI: 0
  m_CustomRenderQueue: -1
  stringTagMap: {}
  disabledShaderPasses: []
  m_SavedProperties:
    serializedVersion: 3
    m_TexEnvs:
    - _BumpMap:
        m_Texture: {fileID: 2800000, guid: 2dd3788f8589b40bf82a92d76ffc5091, type: 3}
        m_Scale: {x: 1, y: 1}
        m_Offset: {x: 0, y: 0}
    - _ColorControl:
        m_Texture: {fileID: 0}
        m_Scale: {x: 1, y: 1}
        m_Offset: {x: 0, y: 0}
    - _DetailAlbedoMap:
        m_Texture: {fileID: 0}
        m_Scale: {x: 1, y: 1}
        m_Offset: {x: 0, y: 0}
    - _DetailMask:
        m_Texture: {fileID: 0}
        m_Scale: {x: 1, y: 1}
        m_Offset: {x: 0, y: 0}
    - _DetailNormalMap:
        m_Texture: {fileID: 0}
        m_Scale: {x: 1, y: 1}
        m_Offset: {x: 0, y: 0}
    - _EmissionMap:
        m_Texture: {fileID: 0}
        m_Scale: {x: 1, y: 1}
        m_Offset: {x: 0, y: 0}
    - _Fresnel:
        m_Texture: {fileID: 2800000, guid: 5b5c5575fd4c74abd9f7b30862fb76a3, type: 3}
        m_Scale: {x: 1, y: 1}
        m_Offset: {x: 0, y: 0}
    - _GlossinessMap:
        m_Texture: {fileID: 0}
        m_Scale: {x: 1, y: 1}
        m_Offset: {x: 0, y: 0}
    - _GlowMap:
        m_Texture: {fileID: 0}
        m_Scale: {x: 1, y: 1}
        m_Offset: {x: 0, y: 0}
    - _MainTex:
        m_Texture: {fileID: 0}
        m_Scale: {x: 1, y: 1}
        m_Offset: {x: 0, y: 0}
    - _MetallicGlossMap:
        m_Texture: {fileID: 0}
        m_Scale: {x: 1, y: 1}
        m_Offset: {x: 0, y: 0}
    - _Normal:
        m_Texture: {fileID: 2800000, guid: 601ed230ec4592445a06ae013da7362f, type: 3}
        m_Scale: {x: 1, y: 1}
        m_Offset: {x: 0, y: 0}
    - _OcclusionMap:
        m_Texture: {fileID: 0}
        m_Scale: {x: 1, y: 1}
        m_Offset: {x: 0, y: 0}
    - _ParallaxMap:
        m_Texture: {fileID: 0}
        m_Scale: {x: 1, y: 1}
        m_Offset: {x: 0, y: 0}
    - _Reflection:
        m_Texture: {fileID: 0}
        m_Scale: {x: 1, y: 1}
        m_Offset: {x: 0, y: 0}
    - _ReflectionTex:
        m_Texture: {fileID: 0}
        m_Scale: {x: 1, y: 1}
        m_Offset: {x: 0, y: 0}
    - _ReflectiveColor:
        m_Texture: {fileID: 2800000, guid: ab97f9ab7c2ce724ebc9446060a819a4, type: 3}
        m_Scale: {x: 1, y: 1}
        m_Offset: {x: 0, y: 0}
    - _RefractionTex:
        m_Texture: {fileID: 0}
        m_Scale: {x: 1, y: 1}
        m_Offset: {x: 0, y: 0}
    - _ShoreTex:
        m_Texture: {fileID: 0}
        m_Scale: {x: 1, y: 1}
        m_Offset: {x: 0, y: 0}
    m_Floats:
    - DEBUG_RADIOSITI: 0
    - GLOWMAP: 0
    - RADIOSITI_FROM_ALPHA: 0
    - REFLECTIONS: 0
    - REFLECTIONSMASK: 0
    - VERTEXCOLOR: 0
    - WATER_ANIMATION: 1
    - _Bump: 0.45
    - _BumpScale: 1
    - _Cutoff: 0.5
    - _DetailNormalMapScale: 1
    - _DstBlend: 0
    - _FresnelScale: 0.75
    - _GerstnerIntensity: 1
    - _GlossMapScale: 1
    - _Glossiness: 1
    - _GlossyReflections: 1
    - _Metallic: 0.409
    - _Mode: 0
    - _OcclusionStrength: 1
    - _Parallax: 0.02
    - _Radiosity: 0.844
    - _ReflDistort: 0.44
    - _ReflectionForce: 1
    - _ReflectionSmooth: 0
    - _RefrDistort: 0.4
    - _Shininess: 200
    - _SmoothnessTextureChannel: 0
    - _SpecularHighlights: 1
    - _SrcBlend: 1
    - _UVSec: 0
    - _WaveScale: 0.0653
    - _ZWrite: 1
    m_Colors:
    - WaveSpeed: {r: 19, g: 9, b: -16, a: -7}
    - _AnimationDirection: {r: 1, g: 1, b: 1, a: 1}
    - _AnimationTiling: {r: 2.2, g: 2.2, b: -1.1, a: -1.1}
    - _BaseColor: {r: 0.53999996, g: 0.95, b: 0.98999995, a: 0.5}
    - _BumpDirection: {r: 1, g: 1, b: -1, a: 1}
    - _BumpTiling: {r: 1, g: 1, b: -2, a: 3}
    - _Color: {r: 1, g: 1, b: 1, a: 1}
    - _DistortParams: {r: 1, g: 1, b: 2, a: 1.15}
    - _EmissionColor: {r: 0, g: 0, b: 0, a: 1}
    - _Foam: {r: 0.1, g: 0.375, b: 0, a: 0}
    - _GAmplitude: {r: 0.3, g: 0.35, b: 0.25, a: 0.25}
    - _GDirectionAB: {r: 0.3, g: 0.85, b: 0.85, a: 0.25}
    - _GDirectionCD: {r: 0.1, g: 0.9, b: 0.5, a: 0.5}
    - _GFrequency: {r: 1.3, g: 1.35, b: 1.25, a: 1.25}
    - _GSpeed: {r: 1.2, g: 1.375, b: 1.1, a: 1.5}
    - _GSteepness: {r: 1, g: 1, b: 1, a: 1}
    - _HorizonColor: {r: 0.17199996, g: 0.46299994, b: 0.43499997, a: 1}
    - _InvFadeParemeter: {r: 0.15, g: 0.15, b: 0.5, a: 1}
    - _ReflectionColor: {r: 0.53999996, g: 0.95, b: 0.98999995, a: 0.5}
    - _RefrColor: {r: 0.33999997, g: 0.85, b: 0.92, a: 1}
    - _SpecularColor: {r: 0.72, g: 0.72, b: 0.72, a: 1}
    - _WorldLightDir: {r: 0, g: 0.1, b: -0.5, a: 0}
    - _horizonColor: {r: 0.9716981, g: 0.9716981, b: 0.9716981, a: 0}
  m_BuildTextureStacks: []
